{"employees":[{"id":"8b22ffc1-2bcf-4536-ac55-ca0925846ecb","nik":"BJMS-SRU1-008","name":"RAHMAD FAHREJA","email":"fahrejarahmad@gmail.com","phone":"087762681609","whatsapp":"087762681609","jabatan_id":"1fb317a7-0a5e-434e-92ab-baa1e0a64f22","jabatan_name":"SALES RETAIL-U1","department":"SALES RETAIL","branch_id":"","branch_name":"","ktp_number":"7271022303960007","birth_date":"1996-03-23","birth_place":"Palu","gender":"Laki-laki","religion":"","marital_status":"","address":"Handil Bakti, Komplek Grand Purnama 2 Blok O Jalur 47 No 69","join_date":"2024-11-11","contract_type":"kontrak","contract_end_date":"2027-02-28","status":"active","bank_name":"","bank_account":"","bank_holder":"","salary_type":"monthly","gaji_pokok":1240000.0,"upah_harian":0,"tunjangan_jabatan":0,"tunjangan_transport":0,"tunjangan_makan":0,"tunjangan_keluarga":0,"tunjangan_lainnya":0,"tunjangan_total":0.0,"bonus_kehadiran":0,"bonus_performance":0,"bonus_target":0,"bonus_lainnya":0,"potongan_bpjs_kes":0,"potongan_bpjs_tk":0,"potongan_pinjaman":0,"potongan_lainnya":0,"payment_method":"transfer","total_minus":0,"total_plus":0,"piutang_karyawan":0,"photo_url":"","user_id":"","created_at":"2026-03-11T08:16:21.539665+00:00","updated_at":"2026-03-11T08:16:21.539675+00:00","salary_base":5000000},{"id":"8b6a569b-5c47-4118-85da-a62140b37e1f","nik":"BJMS-SRU1-009","name":"ABDUL LATIF","email":"alatifbjm123@gmail.com","phone":" 083198861998","whatsapp":" 083198861998","jabatan_id":"1fb317a7-0a5e-434e-92ab-baa1e0a64f22","jabatan_name":"SALES RETAIL-U1","department":"SALES RETAIL","branch_id":"911c5363-74c8-47de-802c-37b1d4aa765a","branch_name":"OCB Banjarmasin Pusat","ktp_number":"6371030410060008","birth_date":"2006-10-04","birth_place":"Banjarmasin","gender":"Laki-laki","religion":"","marital_status":"","address":"KOMPLEK PURNA SAKTI JALUR UTAMA II","join_date":"2025-02-05","contract_type":"kontrak","contract_end_date":"2026-10-31","status":"active","bank_name":"","bank_account":"","bank_holder":"","salary_type":"monthly","gaji_pokok":1240000.0,"upah_harian":0,"tunjangan_jabatan":0,"tunjangan_transport":0,"tunjangan_makan":0,"tunjangan_keluarga":0,"tunjangan_lainnya":0,"tunjangan_total":0.0,"bonus_kehadiran":0,"bonus_performance":0,"bonus_target":0,"bonus_lainnya":0,"potongan_bpjs_kes":0,"potongan_bpjs_tk":0,"potongan_pinjaman":0,"potongan_lainnya":0,"payment_method":"transfer","total_minus":0,"total_plus":0,"piutang_karyawan":0,"photo_url":"","user_id":"","created_at":"2026-03-11T08:20:07.724969+00:00","updated_at":"2026-03-11T09:16:14.692550+00:00","salary_base":5000000},{"id":"c26b0dbc-0dd6-41f2-beca-9f2391f2d4c7","nik":"BJMS-SRU1-004","name":"RABIATUL ADAWIYAH","email":"rabiatul220203@gmail.com","phone":"081225650865","whatsapp":"081225650865","jabatan_id":"1fb317a7-0a5e-434e-92ab-baa1e0a64f22","jabatan_name":"SALES RETAIL-U1","department":"SALES RETAIL","branch_id":"BR001","branch_name":"OCB Banjarmasin Pusat","ktp_number":"6203046202030001","birth_date":"2003-02-22","birth_place":"Sei Teras","gender":"Perempuan","religion":"","marital_status":"","address":"Jl.Tatah Belayung Komp.Bumi Permata Belayung Blok.C No.1","join_date":"2024-05-26","contract_type":"kontrak","contract_end_date":"","status":"active","bank_name":"","bank_account":"","bank_holder":"","salary_type":"monthly","gaji_pokok":1240000.0,"upah_harian":0,"tunjangan_jabatan":0,"tunjangan_transport":0,"tunjangan_makan":0,"tunjangan_keluarga":0,"tunjangan_lainnya":0,"tunjangan_total":0.0,"bonus_kehadiran":0,"bonus_performance":0,"bonus_target":0,"bonus_lainnya":0,"potongan_bpjs_kes":0,"potongan_bpjs_tk":0,"potongan_pinjaman":0,"potongan_lainnya":0,"payment_method":"transfer","total_minus":0,"total_plus":0,"piutang_karyawan":0,"photo_url":"","user_id":"","created_at":"2026-03-11T07:55:12.251382+00:00","updated_at":"2026-03-11T07:55:12.251391+00:00","salary_base":5000000},{"id":"a9b2b2ff-0dac-41b4-901e-e30f46ee77d0","nik":"BJMS-SRU1-007","name":"DESSY AMELIA","email":"dessyameliaputriamelia@gmail.com","phone":"088705346366","whatsapp":"088705346366","jabatan_id":"1fb317a7-0a5e-434e-92ab-baa1e0a64f22","jabatan_name":"SALES RETAIL-U1","department":"SALES RETAIL","branch_id":"","branch_name":"","ktp_number":"6371056712040001","birth_date":"2004-12-27","birth_place":"Banjarmasin","gender":"Perempuan","religion":"","marital_status":"","address":"Jl. Tatah Belayung Baru, ","join_date":"2024-06-11","contract_type":"kontrak","contract_end_date":"2026-12-31","status":"active","bank_name":"","bank_account":"","bank_holder":"","salary_type":"monthly","gaji_pokok":1240000.0,"upah_harian":0,"tunjangan_jabatan":0,"tunjangan_transport":0,"tunjangan_makan":0,"tunjangan_keluarga":0,"tunjangan_lainnya":0,"tunjangan_total":0.0,"bonus_kehadiran":0,"bonus_performance":0,"bonus_target":0,"bonus_lainnya":0,"potongan_bpjs_kes":0,"potongan_bpjs_tk":0,"potongan_pinjaman":0,"potongan_lainnya":0,"payment_method":"transfer","total_minus":0,"total_plus":0,"piutang_karyawan":0,"photo_url":"","user_id":"","created_at":"2026-03-11T08:11:19.184670+00:00","updated_at":"2026-03-11T08:11:19.184680+00:00","salary_base":5000000},{"id":"9dd4eecd-289b-404c-8e25-40aafb804c32","nik":"BJMS-SRU1-005","name":"NOOR LAILA","email":"noorlaila574@gmail.com","phone":"083140049495","whatsapp":"083140049495","jabatan_id":"1fb317a7-0a5e-434e-92ab-baa1e0a64f22","jabatan_name":"SALES RETAIL-U1","department":"SALES RETAIL","branch_id":"","branch_name":"","ktp_number":"6303026609050006","birth_date":"2005-09-26","birth_place":"Kertak hanyar","gender":"Perempuan","religion":"","marital_status":"","address":"Komp. Herlina Perkasa, Jl Jeruk Purut 09 No. 44, Sungai Andai, Banjarmasin Utara","join_date":"2024-05-25","contract_type":"kontrak","contract_end_date":"2026-07-31","status":"active","bank_name":"","bank_account":"","bank_holder":"","salary_type":"monthly","gaji_pokok":1240000.0,"upah_harian":0,"tunjangan_jabatan":0,"tunjangan_transport":0,"tunjangan_makan":0,"tunjangan_keluarga":0,"tunjangan_lainnya":0,"tunjangan_total":0.0,"bonus_kehadiran":0,"bonus_performance":0,"bonus_target":0,"bonus_lainnya":0,"potongan_bpjs_kes":0,"potongan_bpjs_tk":0,"potongan_pinjaman":0,"potongan_lainnya":0,"payment_method":"transfer","total_minus":0,"total_plus":0,"piutang_karyawan":0,"photo_url":"","user_id":"","created_at":"2026-03-11T08:00:38.848460+00:00","updated_at":"2026-03-11T08:00:38.848468+00:00","salary_base":5000000},{"id":"2b0c4be0-d984-449b-8220-14ca622a35fa","nik":"BJMS-SRU1-003","name":"ANTONIUS OTU","email":"antonyukxxx96@gmail.com","phone":"082251634273","whatsapp":"082251634273","jabatan_id":"1fb317a7-0a5e-434e-92ab-baa1e0a64f22","jabatan_name":"SALES RETAIL-U1","department":"SALES RETAIL","branch_id":"","branch_name":"","ktp_number":"5313050412000001","birth_date":"2000-12-04","birth_place":"Sandakan","gender":"Laki-laki","religion":"","marital_status":"","address":"Jl. Pendidikan 8 komp Citra griya indah blok A no. 8","join_date":"2024-01-29","contract_type":"kontrak","contract_end_date":"2026-07-31","status":"active","bank_name":"","bank_account":"","bank_holder":"","salary_type":"monthly","gaji_pokok":1240000.0,"upah_harian":0,"tunjangan_jabatan":0,"tunjangan_transport":0,"tunjangan_makan":0,"tunjangan_keluarga":0,"tunjangan_lainnya":0,"tunjangan_total":0.0,"bonus_kehadiran":0,"bonus_performance":0,"bonus_target":0,"bonus_lainnya":0,"potongan_bpjs_kes":0,"potongan_bpjs_tk":0,"potongan_pinjaman":0,"potongan_lainnya":0,"payment_method":"transfer","total_minus":0,"total_plus":0,"piutang_karyawan":0,"photo_url":"","user_id":"","created_at":"2026-03-11T07:14:28.934862+00:00","updated_at":"2026-03-11T07:14:28.934876+00:00","salary_base":5000000},{"id":"03a8e34c-e507-4d94-b898-b24141c08c8f","nik":"BJMS-SRU1-002","name":"SALWA NUR AMELIA","email":"salwamell12@gmail.com","phone":"089694662626","whatsapp":"089694662626","jabatan_id":"1fb317a7-0a5e-434e-92ab-baa1e0a64f22","jabatan_name":"SALES RETAIL-U1","department":"SALES RETAIL","branch_id":"","branch_name":"","ktp_number":"6371015209040002","birth_date":"2004-09-12","birth_place":"BANJARMASIN","gender":"Perempuan","religion":"","marital_status":"","address":"Jl Arjuna III No 4 ","join_date":"2023-10-17","contract_type":"kontrak","contract_end_date":"2026-12-31","status":"active","bank_name":"","bank_account":"","bank_holder":"","salary_type":"monthly","gaji_pokok":1240000.0,"upah_harian":0.0,"tunjangan_jabatan":0.0,"tunjangan_transport":0.0,"tunjangan_makan":0.0,"tunjangan_keluarga":0.0,"tunjangan_lainnya":0.0,"tunjangan_total":0.0,"bonus_kehadiran":0.0,"bonus_performance":0.0,"bonus_target":0.0,"bonus_lainnya":0.0,"potongan_bpjs_kes":0.0,"potongan_bpjs_tk":0.0,"potongan_pinjaman":0.0,"potongan_lainnya":0.0,"payment_method":"transfer","total_minus":0,"total_plus":0,"piutang_karyawan":0,"photo_url":"","user_id":"","created_at":"2026-03-11T06:40:39.662189+00:00","updated_at":"2026-03-11T21:14:13.488705+00:00","salary_base":5000000},{"id":"2d232e6a-e993-4d76-a4da-cea06b60f4d3","nik":"BJMS-SRU1-001","name":"SAHRI","email":"Sharial1903@gmail.com","phone":"0895615817045","whatsapp":"0895615817045","jabatan_id":"1fb317a7-0a5e-434e-92ab-baa1e0a64f22","jabatan_name":"SALES RETAIL-U1","department":"SALES RETAIL","branch_id":"","branch_name":"","ktp_number":"6371011903990007","birth_date":"1999-03-19","birth_place":"Banjarmasin","gender":"Laki-laki","religion":"","marital_status":"","address":"Jl. Tembus Mantuil rt.03 rw.01 no.75, Antasan bondan","join_date":"2018-05-11","contract_type":"kontrak","contract_end_date":"2026-07-31","status":"active","bank_name":"","bank_account":"","bank_holder":"","salary_type":"monthly","gaji_pokok":1240000.0,"upah_harian":0,"tunjangan_jabatan":0,"tunjangan_transport":0,"tunjangan_makan":0,"tunjangan_keluarga":0,"tunjangan_lainnya":0,"tunjangan_total":0.0,"bonus_kehadiran":0,"bonus_performance":0,"bonus_target":0,"bonus_lainnya":0,"potongan_bpjs_kes":0,"potongan_bpjs_tk":0,"potongan_pinjaman":0,"potongan_lainnya":0,"payment_method":"transfer","total_minus":0,"total_plus":0,"piutang_karyawan":0,"photo_url":"","user_id":"","created_at":"2026-03-11T04:50:03.997489+00:00","updated_at":"2026-03-11T06:38:16.193709+00:00","leave_balance":{"annual":12,"sick":12,"maternity":90,"unpaid":0},"salary_base":5000000},{"id":"0ac15e30-e57d-4f1b-9ff8-6c329c5066d7","nik":"","name":"MELI FATIMAH","email":"melifatimahtkj1@gmail.com","phone":"6285651204202","whatsapp":"6285651204202","jabatan_id":"7fbefc3e-d534-4507-8203-ae09814eb4ff","jabatan_name":"SPV TALA","department":"SUPERVISOR","branch_id":"","branch_name":"","ktp_number":"6203074103000006","birth_date":"2000-03-01","birth_place":"PALINGKAU LAMA","gender":"Perempuan","religion":"","marital_status":"","address":"Jl. Danau Teratai 008/003, Angsau, Pelaihari, Tanah Laut","join_date":"2026-01-01","contract_type":"kontrak","contract_end_date":"2027-01-31","status":"active","bank_name":"","bank_account":"","bank_holder":"","salary_type":"monthly","gaji_pokok":2000000.0,"upah_harian":0,"tunjangan_jabatan":0,"tunjangan_transport":0,"tunjangan_makan":0,"tunjangan_keluarga":0,"tunjangan_lainnya":0,"tunjangan_total":0.0,"bonus_kehadiran":0,"bonus_performance":0,"bonus_target":0,"bonus_lainnya":0,"potongan_bpjs_kes":0,"potongan_bpjs_tk":0,"potongan_pinjaman":0,"potongan_lainnya":0,"payment_method":"transfer","total_minus":0,"total_plus":0,"piutang_karyawan":0,"photo_url":"","user_id":"","created_at":"2026-03-11T06:58:53.175924+00:00","updated_at":"2026-03-11T09:16:54.419080+00:00","salary_base":5000000},{"id":"d7e4fb67-23c1-4f8a-95b4-f42ac304237f","nik":"BJMS-SRU1-006","name":"ADELLA SAFIRA","email":"adellasafira720@gmail.com","phone":"087837565649","whatsapp":"087837565649","jabatan_id":"1fb317a7-0a5e-434e-92ab-baa1e0a64f22","jabatan_name":"SALES RETAIL-U1","department":"SALES RETAIL","branch_id":"","branch_name":"","ktp_number":"6371044312000008","birth_date":"2000-12-03","birth_place":"Banjarmasin","gender":"Perempuan","religion":"","marital_status":"","address":"Jl. Hksn Amd Permai 10A1 No. 46 Rt. 25","join_date":"2023-10-17","contract_type":"kontrak","contract_end_date":"2026-07-31","status":"active","bank_name":"","bank_account":"","bank_holder":"","salary_type":"monthly","gaji_pokok":1240000.0,"upah_harian":0,"tunjangan_jabatan":0,"tunjangan_transport":0,"tunjangan_makan":0,"tunjangan_keluarga":0,"tunjangan_lainnya":0,"tunjangan_total":0.0,"bonus_kehadiran":0,"bonus_performance":0,"bonus_target":0,"bonus_lainnya":0,"potongan_bpjs_kes":0,"potongan_bpjs_tk":0,"potongan_pinjaman":0,"potongan_lainnya":0,"payment_method":"transfer","total_minus":0,"total_plus":0,"piutang_karyawan":0,"photo_url":"","user_id":"","created_at":"2026-03-11T08:05:34.597486+00:00","updated_at":"2026-03-11T09:22:13.531022+00:00","salary_base":5000000}],"total":21,"page":1,"limit":10,"total_pages":3}