{
  "employees":
{"employees":[{"id":"2b0c4be0-d984-449b-8220-14ca622a35fa","nik":"BJMS-SRU1-003","name":"ANTONIUS OTU","email":"antonyukxxx96@gmail.com","phone":"082251634273","whatsapp":"082251634273","jabatan_id":"1fb317a7-0a5e-434e-92ab-baa1e0a64f22","jabatan_name":"SALES RETAIL-U1","department":"SALES RETAIL","branch_id":"","branch_name":"","ktp_number":"5313050412000001","birth_date":"2000-12-04","birth_place":"Sandakan","gender":"Laki-laki","religion":"","marital_status":"","address":"Jl. Pendidikan 8 komp Citra griya indah blok A no. 8","join_date":"2024-01-29","contract_type":"kontrak","contract_end_date":"2026-07-31","status":"active","bank_name":"","bank_account":"","bank_holder":"","salary_type":"monthly","gaji_pokok":1240000.0,"upah_harian":0,"tunjangan_jabatan":0,"tunjangan_transport":0,"tunjangan_makan":0,"tunjangan_keluarga":0,"tunjangan_lainnya":0,"tunjangan_total":0.0,"bonus_kehadiran":0,"bonus_performance":0,"bonus_target":0,"bonus_lainnya":0,"potongan_bpjs_kes":0,"potongan_bpjs_tk":0,"potongan_pinjaman":0,"potongan_lainnya":0,"payment_method":"transfer","total_minus":0,"total_plus":0,"piutang_karyawan":0,"photo_url":"","user_id":"","created_at":"2026-03-11T07:14:28.934862+00:00","updated_at":"2026-03-11T07:14:28.934876+00:00","salary_base":5000000},{"id":"c26b0dbc-0dd6-41f2-beca-9f2391f2d4c7","nik":"BJMS-SRU1-004","name":"RABIATUL ADAWIYAH","email":"rabiatul220203@gmail.com","phone":"081225650865","whatsapp":"081225650865","jabatan_id":"1fb317a7-0a5e-434e-92ab-baa1e0a64f22","jabatan_name":"SALES RETAIL-U1","department":"SALES RETAIL","branch_id":"BR001","branch_name":"OCB Banjarmasin Pusat","ktp_number":"6203046202030001","birth_date":"2003-02-22","birth_place":"Sei Teras","gender":"Perempuan","religion":"","marital_status":"","address":"Jl.Tatah Belayung Komp.Bumi Permata Belayung Blok.C No.1","join_date":"2024-05-26","contract_type":"kontrak","contract_end_date":"","status":"active","bank_name":"","bank_account":"","bank_holder":"","salary_type":"monthly","gaji_pokok":1240000.0,"upah_harian":0,"tunjangan_jabatan":0,"tunjangan_transport":0,"tunjangan_makan":0,"tunjangan_keluarga":0,"tunjangan_lainnya":0,"tunjangan_total":0.0,"bonus_kehadiran":0,"bonus_performance":0,"bonus_target":0,"bonus_lainnya":0,"potongan_bpjs_kes":0,"potongan_bpjs_tk":0,"potongan_pinjaman":0,"potongan_lainnya":0,"payment_method":"transfer","total_minus":0,"total_plus":0,"piutang_karyawan":0,"photo_url":"","user_id":"","created_at":"2026-03-11T07:55:12.251382+00:00","updated_at":"2026-03-11T07:55:12.251391+00:00","salary_base":5000000},{"id":"03a8e34c-e507-4d94-b898-b24141c08c8f","nik":"BJMS-SRU1-002","name":"SALWA NUR AMELIA","email":"salwamell12@gmail.com","phone":"089694662626","whatsapp":"089694662626","jabatan_id":"1fb317a7-0a5e-434e-92ab-baa1e0a64f22","jabatan_name":"SALES RETAIL-U1","department":"SALES RETAIL","branch_id":"","branch_name":"","ktp_number":"6371015209040002","birth_date":"2004-09-12","birth_place":"BANJARMASIN","gender":"Perempuan","religion":"","marital_status":"","address":"Jl Arjuna III No 4 ","join_date":"2023-10-17","contract_type":"kontrak","contract_end_date":"2026-12-31","status":"active","bank_name":"","bank_account":"","bank_holder":"","salary_type":"monthly","gaji_pokok":1240000.0,"upah_harian":0.0,"tunjangan_jabatan":0.0,"tunjangan_transport":0.0,"tunjangan_makan":0.0,"tunjangan_keluarga":0.0,"tunjangan_lainnya":0.0,"tunjangan_total":0.0,"bonus_kehadiran":0.0,"bonus_performance":0.0,"bonus_target":0.0,"bonus_lainnya":0.0,"potongan_bpjs_kes":0.0,"potongan_bpjs_tk":0.0,"potongan_pinjaman":0.0,"potongan_lainnya":0.0,"payment_method":"transfer","total_minus":0,"total_plus":0,"piutang_karyawan":0,"photo_url":"","user_id":"","created_at":"2026-03-11T06:40:39.662189+00:00","updated_at":"2026-03-11T21:14:13.488705+00:00","salary_base":5000000},{"id":"2d232e6a-e993-4d76-a4da-cea06b60f4d3","nik":"BJMS-SRU1-001","name":"SAHRI","email":"Sharial1903@gmail.com","phone":"0895615817045","whatsapp":"0895615817045","jabatan_id":"1fb317a7-0a5e-434e-92ab-baa1e0a64f22","jabatan_name":"SALES RETAIL-U1","department":"SALES RETAIL","branch_id":"","branch_name":"","ktp_number":"6371011903990007","birth_date":"1999-03-19","birth_place":"Banjarmasin","gender":"Laki-laki","religion":"","marital_status":"","address":"Jl. Tembus Mantuil rt.03 rw.01 no.75, Antasan bondan","join_date":"2018-05-11","contract_type":"kontrak","contract_end_date":"2026-07-31","status":"active","bank_name":"","bank_account":"","bank_holder":"","salary_type":"monthly","gaji_pokok":1240000.0,"upah_harian":0,"tunjangan_jabatan":0,"tunjangan_transport":0,"tunjangan_makan":0,"tunjangan_keluarga":0,"tunjangan_lainnya":0,"tunjangan_total":0.0,"bonus_kehadiran":0,"bonus_performance":0,"bonus_target":0,"bonus_lainnya":0,"potongan_bpjs_kes":0,"potongan_bpjs_tk":0,"potongan_pinjaman":0,"potongan_lainnya":0,"payment_method":"transfer","total_minus":0,"total_plus":0,"piutang_karyawan":0,"photo_url":"","user_id":"","created_at":"2026-03-11T04:50:03.997489+00:00","updated_at":"2026-03-11T06:38:16.193709+00:00","leave_balance":{"annual":12,"sick":12,"maternity":90,"unpaid":0},"salary_base":5000000},{"id":"0ac15e30-e57d-4f1b-9ff8-6c329c5066d7","nik":"","name":"MELI FATIMAH","email":"melifatimahtkj1@gmail.com","phone":"6285651204202","whatsapp":"6285651204202","jabatan_id":"7fbefc3e-d534-4507-8203-ae09814eb4ff","jabatan_name":"SPV TALA","department":"SUPERVISOR","branch_id":"","branch_name":"","ktp_number":"6203074103000006","birth_date":"2000-03-01","birth_place":"PALINGKAU LAMA","gender":"Perempuan","religion":"","marital_status":"","address":"Jl. Danau Teratai 008/003, Angsau, Pelaihari, Tanah Laut","join_date":"2026-01-01","contract_type":"kontrak","contract_end_date":"2027-01-31","status":"active","bank_name":"","bank_account":"","bank_holder":"","salary_type":"monthly","gaji_pokok":2000000.0,"upah_harian":0,"tunjangan_jabatan":0,"tunjangan_transport":0,"tunjangan_makan":0,"tunjangan_keluarga":0,"tunjangan_lainnya":0,"tunjangan_total":0.0,"bonus_kehadiran":0,"bonus_performance":0,"bonus_target":0,"bonus_lainnya":0,"potongan_bpjs_kes":0,"potongan_bpjs_tk":0,"potongan_pinjaman":0,"potongan_lainnya":0,"payment_method":"transfer","total_minus":0,"total_plus":0,"piutang_karyawan":0,"photo_url":"","user_id":"","created_at":"2026-03-11T06:58:53.175924+00:00","updated_at":"2026-03-11T09:16:54.419080+00:00","salary_base":5000000}],"total":21,"page":1,"limit":5,"total_pages":5},
  "attendance":
{"date":"2026-03-14","summary":{"total_employees":21,"present":1,"absent":20,"checked_out":1,"still_working":0,"late":0},"records":[{"id":"edb761ea-e429-4f03-9066-7892c68f2958","employee_id":"2d232e6a-e993-4d76-a4da-cea06b60f4d3","employee_nik":null,"employee_name":null,"department_id":null,"department_name":null,"branch_id":"","date":"2026-03-14","check_in":"2026-03-14T22:13:58.766752+00:00","check_in_time":"22:13:58","check_in_method":"manual","check_in_location":"Kantor Pusat","check_in_lat":null,"check_in_lng":null,"check_in_notes":"Check-in test","check_out":"2026-03-14T22:13:59.934739+00:00","check_out_time":"22:13:59","check_out_method":"manual","check_out_location":"Kantor Pusat","shift_id":null,"shift_name":null,"is_late":false,"late_minutes":0,"work_hours":0.0,"overtime_hours":0,"status":"present","created_by":"21e37a5c-3ebd-4182-bd6e-61f7dcf5d105","created_by_name":"Oscar OCB","created_at":"2026-03-14T22:13:58.767060+00:00","check_out_lat":null,"check_out_lng":null,"check_out_notes":null,"updated_at":"2026-03-14T22:13:59.935171+00:00","updated_by":"21e37a5c-3ebd-4182-bd6e-61f7dcf5d105"}]},
  "kpi":
{"results":[{"id":"ac76ddd3-a021-464c-be15-91f700acd56f","employee_id":"2d232e6a-e993-4d76-a4da-cea06b60f4d3","employee_nik":null,"employee_name":"SAHRI","department_id":null,"department_name":null,"kpi_target_id":"f68bba4d-4c0f-4203-8580-585fb67d66be","kpi_code":"SALES-MTH","kpi_name":"Target Penjualan Bulanan","kpi_category":"sales","metric_type":"currency","period":"2026-03","target_value":100000000.0,"actual_value":85000000.0,"weight":0.4,"achievement":0.85,"weighted_score":0.34,"rating":"below","status":"in_progress","notes":"Sales achievement for March 2026","created_by":"21e37a5c-3ebd-4182-bd6e-61f7dcf5d105","created_at":"2026-03-14T22:30:59.990309+00:00","evidence_url":null,"updated_at":"2026-03-14T22:31:00.178364+00:00","updated_by":"21e37a5c-3ebd-4182-bd6e-61f7dcf5d105"}],"count":1,"summary":{"total_weighted_score":0.34,"average_achievement":85.0}}}
